<?xml version="1.0" encoding="UTF-8" standalone="no"?>
<!-- Created with Inkscape (http://www.inkscape.org/) -->

<svg
   xmlns:dc="http://purl.org/dc/elements/1.1/"
   xmlns:cc="http://creativecommons.org/ns#"
   xmlns:rdf="http://www.w3.org/1999/02/22-rdf-syntax-ns#"
   xmlns:svg="http://www.w3.org/2000/svg"
   xmlns="http://www.w3.org/2000/svg"
   xmlns:sodipodi="http://sodipodi.sourceforge.net/DTD/sodipodi-0.dtd"
   xmlns:inkscape="http://www.inkscape.org/namespaces/inkscape"
   width="37.3596mm"
   height="55.79464mm"
   viewBox="0 0 37.3596 55.79464"
   version="1.1"
   id="svg5510"
   inkscape:version="0.92.5 (2060ec1f9f, 2020-04-08)"
   sodipodi:docname="scribbbles-16.svg">
  <defs
     id="defs5504" />
  <sodipodi:namedview
     id="base"
     pagecolor="#ffffff"
     bordercolor="#666666"
     borderopacity="1.0"
     inkscape:pageopacity="0.0"
     inkscape:pageshadow="2"
     inkscape:zoom="0.35"
     inkscape:cx="1004.8865"
     inkscape:cy="31.152959"
     inkscape:document-units="mm"
     inkscape:current-layer="layer1"
     showgrid="false"
     fit-margin-top="0"
     fit-margin-left="0"
     fit-margin-right="0"
     fit-margin-bottom="0"
     inkscape:window-width="1366"
     inkscape:window-height="715"
     inkscape:window-x="0"
     inkscape:window-y="0"
     inkscape:window-maximized="1" />
  <metadata
     id="metadata5507">
    <rdf:RDF>
      <cc:Work
         rdf:about="">
        <dc:format>image/svg+xml</dc:format>
        <dc:type
           rdf:resource="http://purl.org/dc/dcmitype/StillImage" />
        <dc:title></dc:title>
      </cc:Work>
    </rdf:RDF>
  </metadata>
  <g
     inkscape:label="Calque 1"
     inkscape:groupmode="layer"
     id="layer1"
     transform="translate(160.0429,-101.28125)">
    <g
       id="g59"
       transform="matrix(0.35277777,0,0,-0.35277777,-128.50668,152.63017)">
      <path
         d="M 0,0 C -0.736,0.731 -1.085,1.077 -1.562,1.552 V 2.344 C -2.501,3.37 -3.419,4.35 -4.31,5.353 c -0.752,0.846 -1.428,1.766 -2.222,2.568 -0.885,0.893 -1.658,1.881 -2.596,2.744 -0.847,0.778 -1.979,1.367 -2.505,2.423 -0.609,1.229 -1.948,1.603 -2.716,2.637 -0.709,0.955 -1.596,1.777 -2.403,2.655 -0.019,-0.019 -0.146,-0.147 -0.305,-0.305 -2.747,2.3 -5.45,4.679 -8.979,6.202 -0.035,0.093 -0.155,0.406 -0.302,0.791 -0.199,-0.159 -0.381,-0.304 -0.568,-0.454 -1.832,0.966 -3.758,1.835 -5.553,2.852 -2.21,1.253 -4.686,1.974 -6.729,3.579 -1.026,0.806 -2.38,1.324 -3.666,1.613 -0.788,0.176 -0.632,0.686 -0.925,1.098 -0.261,-0.161 -0.523,-0.321 -0.873,-0.537 -1.452,0.766 -2.947,1.554 -4.487,2.366 0.29,0.318 0.466,0.51 0.743,0.814 -0.472,0.669 -0.448,1.746 -2.133,2.024 0.826,0.289 1.337,0.468 1.966,0.688 -0.78,0.722 -1.086,1.006 -1.472,1.364 -0.307,-0.187 -0.594,-0.363 -0.91,-0.556 -0.423,0.24 -0.909,0.514 -1.377,0.779 0.035,0.223 0.008,0.5 0.098,0.548 0.672,0.347 1.368,0.649 2.051,0.963 0.237,1.291 -1.028,1.174 -1.575,1.72 0.129,0.129 0.258,0.257 0.436,0.436 -0.162,0.321 -0.334,0.663 -0.515,1.023 0.659,0.459 1.28,0.892 2.162,1.506 2.257,0.17 4.875,0.157 7.395,0.647 1.302,0.252 2.744,0.045 3.834,0.562 1.354,0.641 2.709,0.028 3.891,0.498 1.304,0.517 2.667,0.177 3.863,0.563 1.313,0.424 2.674,0.149 3.87,0.531 2.847,0.91 5.936,0.779 8.661,2.123 1.213,-0.33 2.425,0.728 3.638,0 1.256,0.793 2.692,0.993 4.108,1.281 1.999,0.406 3.829,1.458 5.944,1.484 0.598,0.008 1.19,0.476 2.157,0.895 -2.557,0.74 -4.751,1.376 -7.435,2.153 -0.152,0.189 -0.656,0.818 -1.164,1.453 -0.795,-0.23 -1.354,-0.392 -1.951,-0.564 -2.456,0.948 -5.433,1.03 -7.588,3.071 -0.83,-1.018 -2.016,-0.241 -2.902,-0.522 -2.908,1.483 -6.019,1.64 -9.328,2.471 -0.035,0.039 -0.34,0.373 -0.63,0.691 -1.177,0.449 -2.423,-0.157 -3.623,0.605 -0.87,0.554 -2.191,0.673 -3.266,0.558 -1.312,-0.14 -2.585,0.214 -3.544,0.711 -1.191,0.617 -2.277,0.203 -3.493,0.524 -0.209,0.228 -0.515,0.562 -0.939,1.025 -2.703,-0.251 -5.438,0.277 -8.271,0.493 -0.266,0.349 -0.531,0.698 -0.874,1.148 h -2.796 c 0.347,0.406 0.508,0.593 0.843,0.983 -1.399,-0.135 -2.199,0.609 -2.944,1.651 0.145,0.254 0.312,0.547 0.453,0.796 -1.372,1.409 -2.781,2.856 -4.067,4.176 0.207,0.724 0.365,1.273 0.568,1.982 0.197,0.095 0.567,0.273 0.936,0.451 v 0.639 c -0.285,0.096 -0.599,0.202 -1.077,0.363 -0.119,1.61 0.835,2.677 1.917,3.657 1.267,0.215 1.267,0.215 2.13,1.795 -0.588,-0.33 -0.811,-0.455 -1.158,-0.649 -0.063,0.246 -0.136,0.525 -0.235,0.913 0.611,0.092 1.113,0.167 1.735,0.261 -0.214,0.27 -0.355,0.45 -0.46,0.583 0.996,1.376 1.994,2.755 3.113,4.3 h 1.214 c -0.271,0.319 -0.429,0.506 -0.644,0.759 0.318,0.108 0.618,0.209 1.014,0.343 v 1.155 c 0.354,0.354 0.611,0.61 0.869,0.868 0.593,-0.494 1.555,-0.591 1.7,-1.581 0.871,1.215 -0.25,1.741 -0.964,2.617 0.54,0.047 0.961,0.084 1.403,0.122 0.678,1.121 1.581,2.086 1.626,3.627 0.037,1.286 1.313,1.92 2.592,2.443 -0.208,0.281 -0.334,0.451 -0.586,0.789 0.488,0.096 0.921,0.18 1.473,0.287 -0.018,0.129 -0.045,0.32 -0.123,0.888 0.509,0.716 1.442,1.62 1.867,2.721 0.605,1.568 2.319,2.092 2.912,3.708 0.52,1.417 1.492,2.678 2.573,3.867 1.474,1.621 2.562,3.592 3.906,5.545 h -1.496 c -0.122,-0.26 -0.298,-0.634 -0.539,-1.144 -0.405,0.254 -0.759,0.477 -1.183,0.742 -0.693,-0.405 -1.474,-0.764 -2.135,-1.278 -0.554,-0.43 -1.528,-0.479 -1.525,-1.488 -1.033,0.272 -1.589,-0.494 -2.195,-1.087 -0.182,0.183 -0.31,0.311 -0.41,0.411 -2.226,-2.165 -4.924,-3.558 -7.744,-4.765 -0.688,-0.722 -1.376,-1.443 -2.058,-2.157 h -0.904 c -1.204,-0.861 -2.251,-1.61 -3.442,-2.463 -0.315,0.554 -0.539,0.947 -0.828,1.454 -0.781,-0.445 -1.515,-0.864 -2.195,-1.252 0.174,-0.709 0.323,-1.321 0.472,-1.927 -1.625,-1.083 -3.116,-2.077 -5.023,-3.348 0.241,1.057 0.789,1.336 1.174,1.813 -1.076,0.661 -1.318,-0.505 -1.906,-0.829 -0.267,0.193 -0.531,0.387 -1.098,0.801 -0.132,-0.51 -0.256,-0.987 -0.38,-1.464 -0.139,0.135 -0.278,0.27 -0.417,0.404 0.205,-0.349 0.41,-0.698 0.635,-1.083 -0.724,-0.36 -1.322,-0.657 -1.912,-0.949 -0.262,0.229 -0.461,0.403 -0.675,0.591 -0.179,-0.165 -0.37,-0.339 -0.616,-0.565 0.139,-0.742 0.285,-1.531 0.42,-2.25 -2.193,-1.291 -4.28,-2.518 -6.367,-3.746 -0.074,0.075 -0.149,0.149 -0.222,0.223 0.152,0.211 0.303,0.422 0.678,0.944 -1.377,-0.253 -2.513,-0.462 -3.833,-0.705 -0.309,1.046 -0.594,2.013 -1.007,3.417 -0.039,0.031 -0.464,0.365 -1.003,0.789 2.742,1.778 4.899,4.006 7.171,6.045 3.145,2.822 6.734,4.977 10.021,7.569 3.422,2.699 7.204,4.945 10.821,7.4 2.06,1.397 4.078,2.859 6.165,4.216 2.93,1.904 5.838,3.857 8.89,5.544 1.345,0.743 2.343,1.931 3.892,2.453 1.33,0.448 2.431,1.584 3.624,2.429 3.047,2.157 6.154,4.222 8.955,6.722 1.823,1.629 3.862,3.019 6.088,4.735 h 3.257 c 0.025,-0.79 0.332,-1.641 -0.536,-2.506 0.717,-0.08 1.387,-0.154 2.02,-0.224 1.304,-2.234 1.529,-4.64 1.181,-7.445 -0.256,-0.183 -0.768,-0.549 -1.705,-1.221 -0.14,-0.056 -0.835,-0.335 -1.67,-0.669 0.308,-0.855 0.539,-1.497 0.757,-2.102 -0.724,-0.979 -1.383,-2.01 -2.185,-2.913 -0.683,-0.77 -0.638,-2.213 -2.345,-2.024 0.401,-0.403 0.53,-0.531 0.769,-0.771 -1.264,-0.486 -0.947,-2.479 -2.677,-2.503 -0.057,-0.478 -0.108,-0.907 -0.168,-1.415 -0.225,-0.052 -0.472,-0.109 -0.746,-0.172 -1.233,-3.242 -3.563,-5.802 -5.727,-8.546 0,-0.2 0.102,-0.535 -0.018,-0.735 -0.486,-0.807 -0.881,-1.968 -1.607,-2.263 -1.18,-0.478 -1.117,-2.242 -2.677,-2.124 -0.038,-0.66 -0.073,-1.272 -0.11,-1.928 -0.303,-0.111 -0.618,-0.226 -1.003,-0.367 -0.017,-0.319 -0.035,-0.669 -0.065,-1.209 -0.647,-0.614 -1.399,-1.328 -2.289,-2.173 -0.289,0.612 -0.459,0.973 -0.694,1.474 -0.458,-0.685 -0.871,-1.303 -1.284,-1.922 0.169,-0.272 0.338,-0.542 0.609,-0.973 -0.434,-0.259 -0.903,-0.426 -1.199,-0.751 -0.259,-0.284 -0.323,-0.746 -0.471,-1.123 0.159,-0.231 0.352,-0.51 0.679,-0.985 -0.453,-0.267 -0.841,-0.494 -1.493,-0.878 -0.169,0.048 -0.725,0.205 -1.357,0.384 v -1.105 c -0.929,-0.496 -1.582,-0.835 -1.837,-2.034 -0.433,-2.038 -1.706,-3.824 -2.675,-5.689 -0.148,-0.286 -0.682,-0.371 -1.034,-0.546 0.185,-0.223 0.338,-0.408 0.323,-0.389 -0.764,-0.893 -1.36,-1.828 -2.18,-2.483 -0.833,-0.667 -1.888,-1.058 -3.088,-1.698 -0.243,-0.596 0.331,-0.752 1.809,-0.451 -0.954,-0.765 -1.274,-1.022 -1.663,-1.333 -0.342,0.171 -0.694,0.347 -1.364,0.682 0.294,-0.755 0.491,-1.262 0.714,-1.834 -0.134,-0.178 -0.287,-0.385 -0.538,-0.721 0.255,-0.238 0.578,-0.767 0.832,-0.736 1.242,0.152 2.179,-0.443 3.09,-0.932 1.996,0.524 3.746,-0.578 5.599,-0.786 2.04,-0.227 4.102,-0.563 6.05,-1.181 1.866,-0.59 3.758,-1.245 5.652,-1.419 2.011,-0.184 3.85,-0.908 5.804,-1.229 1.992,-0.327 3.955,-0.942 5.866,-1.617 1.841,-0.652 3.782,-0.843 5.633,-1.529 1.881,-0.697 3.88,-1.271 5.853,-1.638 1.956,-0.364 3.684,-1.263 5.576,-1.731 1.885,-0.466 3.751,-1.023 5.595,-1.633 1.914,-0.633 3.786,-1.393 5.687,-2.068 1.827,-0.649 3.668,-1.261 5.658,-1.942 0.481,-0.481 1.117,-1.116 1.744,-1.743 -0.155,-0.174 -0.33,-0.373 -0.489,-0.551 -0.084,-1.167 0.919,-1.156 1.463,-1.462 0.216,-1.172 0.419,-2.269 0.638,-3.455 -0.093,-0.1 -0.275,-0.297 -0.444,-0.479 1.274,-1.426 0.304,-2.642 -0.503,-3.709 C 14.572,48.954 13.492,48.078 12.461,47.047 9.834,46.679 7.554,44.549 4.557,45.355 4.474,44.952 4.423,44.703 4.338,44.286 2.726,44.021 1.021,43.742 -0.909,43.426 -0.928,43.363 -1.021,43.053 -1.09,42.823 c -1.514,-0.42 -2.975,-0.865 -4.458,-1.217 -0.583,-0.138 -1.354,-0.305 -1.798,-0.045 -1.129,0.66 -2.071,0.655 -3.196,0 -0.517,-0.301 -1.279,-0.177 -1.908,-0.618 h 2.139 c -0.155,-0.328 -0.225,-0.567 -0.273,-0.562 -1.428,0.13 -2.745,-0.413 -4.027,-0.841 -1.08,-0.361 -2.294,-0.552 -3.079,-0.111 -1.018,0.572 -1.896,0.141 -3.237,0.592 0.404,-0.561 0.521,-0.724 0.64,-0.889 -1.617,-1.039 -2.292,-1.328 -3.562,-0.701 -1.016,0.502 -1.862,0.111 -2.81,-0.118 0.724,-0.082 1.448,-0.164 2.693,-0.305 -1.764,-0.375 -3.003,-0.638 -4.751,-1.009 4.311,-1.944 7.543,-4.656 11.03,-6.983 3.552,-2.37 5.204,-3.876 7.392,-6.659 0.398,-0.505 1.113,-0.751 1.555,-1.233 0.764,-0.836 1.362,-1.831 2.157,-2.633 0.73,-0.736 1.749,-1.199 2.431,-1.969 1.803,-2.039 3.259,-4.369 5.208,-6.299 0.191,-0.189 0.079,-0.686 0.11,-1.08 C 1.552,9.904 2.111,9.74 2.371,9.367 3.642,7.544 4.965,5.737 6.008,3.784 6.837,2.232 7.791,0.749 8.51,-0.898 c 0.711,-1.627 0.823,-3.303 1.281,-4.917 0.473,-1.67 0.016,-3.466 -0.795,-5.21 -1.924,1.659 -3.737,-0.442 -5.679,-0.326 0.914,-0.071 1.829,-0.142 2.744,-0.213 C 6.052,-11.709 6.042,-11.855 6.033,-12 H 4.228 c -0.546,0 -1.092,0.009 -1.637,-0.002 -0.611,-0.014 -1.286,0.168 -1.695,-0.516 -0.338,0.804 -0.995,-0.14 -1.336,0.217 -0.613,0.639 -0.904,-0.714 -1.546,-0.168 -0.355,0.301 -0.938,0.391 -1.433,0.451 -0.612,0.074 -1.239,0.018 -1.802,0.018 -0.159,0.454 -0.27,0.77 -0.445,1.27 -0.166,-0.481 -0.271,-0.785 -0.416,-1.209 -0.289,-0.025 -0.63,-0.055 -1.188,-0.103 -0.524,0.523 -1.145,1.143 -1.703,1.7 -0.483,-0.026 -0.832,-0.045 -1.151,-0.062 -0.141,-0.386 -0.256,-0.7 -0.414,-1.135 -0.221,0.461 -0.39,0.814 -0.56,1.167 h -0.598 c -0.165,-0.35 -0.342,-0.724 -0.536,-1.137 -1.569,0.51 -3.031,1.24 -4.745,1.199 -0.776,-0.018 -1.566,0.549 -2.435,0.884 0.014,0.01 -0.114,-0.089 -0.31,-0.24 -1.373,0.367 -2.796,0.747 -4.549,1.216 0.591,0.481 0.986,0.802 1.353,1.101 -0.87,0.122 -1.446,0.055 -2.341,-0.288 -0.069,0.052 -0.144,0.097 -0.208,0.156 -0.132,0.125 -0.258,0.256 -0.408,0.407 -0.122,-0.133 -0.24,-0.268 -0.365,-0.396 -0.061,-0.062 -0.135,-0.112 -0.209,-0.171 -0.718,0.234 -1.441,0.47 -2.391,0.78 v 2.398 c -0.123,0.06 -0.246,0.119 -0.37,0.178 -0.224,-0.343 -0.447,-0.687 -0.766,-1.175 0.108,-0.197 0.3,-0.545 0.664,-1.208 -1.262,0.312 -2.292,0.566 -3.292,0.814 -0.073,0.33 -0.127,0.578 -0.184,0.836 -1.375,-0.932 -2.386,-0.178 -3.414,0.617 -0.328,0.253 -0.727,0.447 -1.123,0.571 -0.888,0.279 -1.795,0.497 -2.879,0.788 -0.009,0.032 -0.08,0.274 -0.228,0.774 -0.506,-0.034 -1.113,-0.075 -2.078,-0.141 0.155,-0.13 -0.001,0.089 -0.207,0.161 -1.668,0.585 -3.403,0.971 -5.025,1.695 -0.153,0.068 -0.355,0.013 -0.524,0.055 -1.1,0.276 -1.594,1.691 -2.885,1.58 -1.14,-0.098 -1.852,0.804 -2.818,1.113 -1.039,0.332 -2.047,0.761 -3.061,1.165 -0.313,0.124 -0.587,0.369 -0.906,0.44 -0.346,0.078 -0.723,0.018 -1.252,0.018 -0.254,0.336 -0.581,0.766 -0.822,1.085 h -1.85 c -1.093,1.147 -2.18,2.325 -3.99,2.195 -0.161,-0.012 -0.392,0.018 -0.484,0.122 -1.556,1.763 -4.007,1.763 -5.863,3.017 -1.79,1.209 -3.974,1.818 -5.879,2.88 -2.524,1.406 -4.946,2.993 -7.404,4.516 -0.226,0.139 -0.45,0.346 -0.574,0.576 -1.162,2.149 -2.301,4.311 -3.34,6.265 0.26,1.341 0.474,2.443 0.749,3.86 0.438,0.269 1.158,0.71 1.857,1.139 1.46,-0.564 2.902,-1.04 4.271,-1.675 1.376,-0.638 2.742,-1.342 4.002,-2.181 2.76,-1.835 5.86,-3.005 8.724,-4.622 1.695,-0.957 3.679,-1.409 5.084,-2.875 3.206,-0.847 6.042,-2.535 9.035,-3.87 1.294,-0.577 2.516,-1.355 3.922,-1.729 1.296,-0.343 2.537,-0.89 3.804,-1.342 3.96,-1.416 7.912,-2.849 11.882,-4.235 2.067,-0.722 4.153,-1.399 6.252,-2.024 2.114,-0.629 4.331,-1.046 6.372,-1.755 3.577,-1.242 7.339,-1.451 10.928,-2.549 1.895,-0.58 4.007,-0.504 6.027,-0.596 C -4.517,-0.071 -2.541,0 0,0"
         style="fill:#000000;fill-opacity:1;fill-rule:nonzero;stroke:none"
         id="path61"
         inkscape:connector-curvature="0" />
    </g>
  </g>
</svg>
