<?xml version="1.0" encoding="UTF-8" standalone="no"?>
<!-- Created with Inkscape (http://www.inkscape.org/) -->

<svg
   xmlns:dc="http://purl.org/dc/elements/1.1/"
   xmlns:cc="http://creativecommons.org/ns#"
   xmlns:rdf="http://www.w3.org/1999/02/22-rdf-syntax-ns#"
   xmlns:svg="http://www.w3.org/2000/svg"
   xmlns="http://www.w3.org/2000/svg"
   xmlns:sodipodi="http://sodipodi.sourceforge.net/DTD/sodipodi-0.dtd"
   xmlns:inkscape="http://www.inkscape.org/namespaces/inkscape"
   width="55.264057mm"
   height="56.81279mm"
   viewBox="0 0 55.264057 56.81279"
   version="1.1"
   id="svg4624"
   inkscape:version="0.92.5 (2060ec1f9f, 2020-04-08)"
   sodipodi:docname="scribbbles-07.svg">
  <defs
     id="defs4618" />
  <sodipodi:namedview
     id="base"
     pagecolor="#ffffff"
     bordercolor="#666666"
     borderopacity="1.0"
     inkscape:pageopacity="0.0"
     inkscape:pageshadow="2"
     inkscape:zoom="0.35"
     inkscape:cx="755.86458"
     inkscape:cy="290.22008"
     inkscape:document-units="mm"
     inkscape:current-layer="layer1"
     showgrid="false"
     fit-margin-top="0"
     fit-margin-left="0"
     fit-margin-right="0"
     fit-margin-bottom="0"
     inkscape:window-width="1366"
     inkscape:window-height="715"
     inkscape:window-x="0"
     inkscape:window-y="0"
     inkscape:window-maximized="1" />
  <metadata
     id="metadata4621">
    <rdf:RDF>
      <cc:Work
         rdf:about="">
        <dc:format>image/svg+xml</dc:format>
        <dc:type
           rdf:resource="http://purl.org/dc/dcmitype/StillImage" />
        <dc:title></dc:title>
      </cc:Work>
    </rdf:RDF>
  </metadata>
  <g
     inkscape:label="Calque 1"
     inkscape:groupmode="layer"
     id="layer1"
     transform="translate(94.155837,-168.80794)">
    <g
       transform="matrix(0.35277777,0,0,-0.35277777,-298.36778,1015.3902)"
       id="g4593">
      <g
         inkscape:export-ydpi="96"
         inkscape:export-xdpi="96"
         transform="translate(733.62154,2351.6519)"
         id="g975">
        <path
           inkscape:connector-curvature="0"
           id="path977"
           style="fill:#000000;fill-opacity:1;fill-rule:nonzero;stroke:none"
           d="m 0,0 c 0.58,0.292 1,0.502 1.901,0.956 -3.733,-8.423 -5.481,-16.979 -8.756,-25.021 -0.846,-2.078 -2.082,-3.587 -4.439,-3.873 -0.348,-0.042 -0.899,-0.25 -1.013,-0.108 -2.015,2.528 -4.886,1.522 -7.426,1.865 -0.353,0.047 -0.72,0.138 -1.035,0.299 -1.677,0.862 -4.02,5.725 -3.753,7.653 1.157,8.329 3.78,16.194 7.318,23.797 0.66,1.419 1.731,2.317 2.863,3.179 3.064,2.332 3.713,2.064 4.416,-1.596 0.047,-0.243 0.278,-0.451 0.438,-0.696 1.065,0.045 1.06,1.107 1.59,1.634 0.518,0.518 1.209,0.887 1.632,0.292 C -4.635,6.094 -1.476,5.803 0.03,3.256 0.772,2 -0.153,1.211 0,0" />
      </g>
      <g
         inkscape:export-ydpi="96"
         inkscape:export-xdpi="96"
         transform="translate(597.21134,2389.4581)"
         id="g979">
        <path
           inkscape:connector-curvature="0"
           id="path981"
           style="fill:#000000;fill-opacity:1;fill-rule:nonzero;stroke:none"
           d="m 0,0 c 1.317,0.422 1.312,1.729 1.973,2.519 0.397,0.473 0.954,1.479 1.319,1.097 1.29,-1.35 3.837,-1.031 4.401,-2.505 0.565,-1.477 3.45,-1.74 2.162,-4.091 -0.015,-0.029 1.974,0.694 1.167,-1.08 -0.407,-0.896 -0.738,-1.842 -0.969,-2.799 -0.58,-2.394 0.055,-4.831 0.05,-7.234 -0.007,-3.046 -2.153,-5.574 -1.46,-8.702 0.229,-1.032 -1.633,-0.736 -2.16,-1.684 -0.929,-1.67 -1.436,-0.412 -2.071,0.359 -0.607,0.738 -1.345,0.289 -1.966,-0.053 -1.025,-0.564 -1.974,-1.274 -3.02,-1.794 -2.144,-1.066 -4.032,-2.872 -6.881,-1.331 -1.185,0.641 -2.978,0.241 -4.488,0.175 -1.704,-0.075 -2.936,0.397 -3.777,2.024 -0.901,1.743 -3.237,2.673 -2.471,5.344 1.211,4.229 3.131,8.174 6.678,10.626 3.496,2.416 5.161,5.661 6.502,9.344 0.567,1.557 1.296,2.986 2.698,3.988 0.61,0.435 1.223,0.921 1.975,0.609 C 0.659,4.399 0.271,3.417 0.303,2.667 0.34,1.809 -0.344,0.995 0,0" />
      </g>
      <g
         inkscape:export-ydpi="96"
         inkscape:export-xdpi="96"
         transform="translate(659.34804,2373.9918)"
         id="g983">
        <path
           inkscape:connector-curvature="0"
           id="path985"
           style="fill:#000000;fill-opacity:1;fill-rule:nonzero;stroke:none"
           d="m 0,0 c 1.182,2.398 2.92,1.214 4.151,1.649 1.71,0.605 2.453,-0.076 3.746,-0.847 1.186,-0.706 2.873,-0.513 4.182,-1.54 1.93,-1.516 2.834,-3.029 2.431,-5.732 -0.677,-4.547 -2.409,-8.825 -3.001,-13.43 -0.226,-1.76 -2.424,-4.453 -4.768,-5.781 -1.143,-0.648 -1.424,0.358 -1.736,1.058 -0.443,0.996 -1.279,1.678 -2.073,0.916 -1.879,-1.802 -3.854,-0.523 -5.411,-10e-4 -1.823,0.612 -3.244,1.816 -5.508,1.917 -1.577,0.071 -3.128,2.311 -4.559,3.715 -2.419,2.375 -2.149,5.198 -1.039,8.058 0.82,2.112 1.708,4.197 2.59,6.283 0.174,0.409 0.397,1.025 0.713,1.11 3.075,0.821 4.684,3.345 6.79,5.39 C -1.636,4.567 -0.589,3.812 0,0" />
      </g>
      <g
         inkscape:export-ydpi="96"
         inkscape:export-xdpi="96"
         transform="translate(611.07074,2313.9562)"
         id="g987">
        <path
           inkscape:connector-curvature="0"
           id="path989"
           style="fill:#000000;fill-opacity:1;fill-rule:nonzero;stroke:none"
           d="m 0,0 c -0.78,0.496 0.354,1.083 -0.407,1.555 -1.157,-0.665 -2.045,-1.94 -2.281,-3.059 -0.591,-2.787 -3.42,-2.298 -4.819,-3.79 -0.33,-0.352 -0.62,0.013 -0.834,0.314 -0.798,1.119 -1.95,1.178 -3.145,0.99 -0.962,-0.151 -1.791,-0.164 -2.244,0.931 -0.249,0.599 -0.721,0.782 -1.304,0.355 -1.765,-1.291 -2.431,0.142 -3.725,1.091 -5.137,3.767 -3.92,8.485 -2.623,13.383 0.624,2.359 1.109,4.761 1.538,7.166 0.412,2.301 1.586,3.794 3.926,4.271 0.267,0.054 0.55,0.065 0.798,0.166 4.284,1.742 4.284,1.744 5.039,-3.054 1.789,4.086 3.702,2.481 6.104,1.045 2.297,-1.372 4.822,-2.219 6.453,-4.593 0.72,-1.048 1.171,-1.948 0.95,-3.207 C 2.952,10.853 3.247,7.988 1.675,5.495 1.375,5.019 1.482,4.538 1.88,3.799 2.814,2.065 0.787,1.232 0,0" />
      </g>
      <g
         inkscape:export-ydpi="96"
         inkscape:export-xdpi="96"
         transform="translate(655.52044,2325.653)"
         id="g991">
        <path
           inkscape:connector-curvature="0"
           id="path993"
           style="fill:#000000;fill-opacity:1;fill-rule:nonzero;stroke:none"
           d="m 0,0 c 1.784,1.265 3.565,1.941 5.053,-0.402 0.167,-0.262 0.574,-0.455 0.902,-0.518 6.388,-1.227 9.128,-4.639 8.953,-10.881 -0.091,-3.251 -1.159,-6.417 -0.23,-9.832 0.815,-2.998 -0.936,-3.961 -4.058,-2.678 -0.556,0.228 -0.986,0.093 -1.525,-0.135 -1.408,-0.595 -2.814,-0.738 -4.015,0.55 -0.307,0.328 -0.825,0.623 -1.229,0.336 -2.72,-1.927 -5.039,0.216 -7.5,0.724 -1.652,0.341 -3.064,0.336 -4.513,2.279 -1.65,2.211 -1.629,3.906 -1.27,6.096 0.71,4.316 2.032,8.461 3.548,12.548 0.409,1.104 0.867,2.174 1.81,2.99 C -2.025,2.85 -0.994,2.633 0,0" />
      </g>
      <g
         inkscape:export-ydpi="96"
         inkscape:export-xdpi="96"
         transform="translate(608.83924,2243.3942)"
         id="g995">
        <path
           inkscape:connector-curvature="0"
           id="path997"
           style="fill:#000000;fill-opacity:1;fill-rule:nonzero;stroke:none"
           d="m 0,0 c -0.389,-0.273 -0.538,-0.366 -0.674,-0.476 -0.751,-0.603 -0.77,-2.521 -2.158,-1.79 -1.273,0.671 -1.446,2.193 -0.891,3.632 1.826,4.729 3.642,9.461 5.455,14.195 0.681,1.776 1.274,3.59 2.039,5.33 0.543,1.237 1.271,2.845 2.76,2.641 1.771,-0.243 0.367,-2.169 1.015,-3.189 1.028,0.116 1.158,0.997 1.506,1.699 0.642,1.296 1.378,2.115 2.349,0.254 0.164,-0.315 0.256,-0.826 0.645,-0.487 2.391,2.081 3.403,-0.802 4.66,-1.587 C 18.15,19.32 18.22,17.361 17.553,15.408 15.74,10.099 14.2,4.696 12.589,-0.681 12.129,-2.217 11.436,-3.404 9.82,-4.057 9.035,-4.375 8.512,-5.2 8.137,-3.755 8.09,-3.574 7.621,-3.305 7.548,-3.357 6.077,-4.403 4.465,-4.04 2.837,-4.129 1.931,-4.179 1.064,-5.165 -0.053,-4.367 -1.319,-3.461 -0.422,-2.396 -0.341,-1.396 -0.308,-0.993 -0.151,-0.599 0,0" />
      </g>
      <g
         inkscape:export-ydpi="96"
         inkscape:export-xdpi="96"
         transform="translate(700.72994,2386.7139)"
         id="g999">
        <path
           inkscape:connector-curvature="0"
           id="path1001"
           style="fill:#000000;fill-opacity:1;fill-rule:nonzero;stroke:none"
           d="M 0,0 C 0.252,1.091 0.048,1.896 -0.417,2.752 -2.408,6.415 -0.827,11.06 2.947,12.78 4.057,13.286 4.931,13 6.148,12.524 8.288,11.69 10.115,10.604 11.82,9.146 13.811,7.445 15.62,5.725 14.854,2.711 14.61,1.756 16.04,-0.015 15.438,0.129 12.671,0.796 15.888,-2.063 14.204,-1.707 12.405,-1.326 11.53,-2.992 11.179,-3.932 10.148,-6.691 7.992,-6.676 5.788,-6.78 5.157,-6.81 3.692,-7.591 4.365,-5.72 4.388,-5.657 4.339,-5.568 4.323,-5.492 2.614,-6.057 2.458,-4.651 1.541,-3.83 0.084,-2.524 0.17,-1.293 0,0" />
      </g>
    </g>
  </g>
</svg>
