<?xml version="1.0" encoding="UTF-8" standalone="no"?>
<!-- Created with Inkscape (http://www.inkscape.org/) -->

<svg
   xmlns:dc="http://purl.org/dc/elements/1.1/"
   xmlns:cc="http://creativecommons.org/ns#"
   xmlns:rdf="http://www.w3.org/1999/02/22-rdf-syntax-ns#"
   xmlns:svg="http://www.w3.org/2000/svg"
   xmlns="http://www.w3.org/2000/svg"
   xmlns:sodipodi="http://sodipodi.sourceforge.net/DTD/sodipodi-0.dtd"
   xmlns:inkscape="http://www.inkscape.org/namespaces/inkscape"
   width="113.13879mm"
   height="91.201874mm"
   viewBox="0 0 113.13879 91.201874"
   version="1.1"
   id="svg4538"
   inkscape:version="0.92.5 (2060ec1f9f, 2020-04-08)"
   sodipodi:docname="scribbbles-06.svg">
  <defs
     id="defs4532" />
  <sodipodi:namedview
     id="base"
     pagecolor="#ffffff"
     bordercolor="#666666"
     borderopacity="1.0"
     inkscape:pageopacity="0.0"
     inkscape:pageshadow="2"
     inkscape:zoom="0.35"
     inkscape:cx="982.37701"
     inkscape:cy="89.492845"
     inkscape:document-units="mm"
     inkscape:current-layer="layer1"
     showgrid="false"
     fit-margin-top="0"
     fit-margin-left="0"
     fit-margin-right="0"
     fit-margin-bottom="0"
     inkscape:window-width="1366"
     inkscape:window-height="715"
     inkscape:window-x="0"
     inkscape:window-y="0"
     inkscape:window-maximized="1" />
  <metadata
     id="metadata4535">
    <rdf:RDF>
      <cc:Work
         rdf:about="">
        <dc:format>image/svg+xml</dc:format>
        <dc:type
           rdf:resource="http://purl.org/dc/dcmitype/StillImage" />
        <dc:title></dc:title>
      </cc:Work>
    </rdf:RDF>
  </metadata>
  <g
     inkscape:label="Calque 1"
     inkscape:groupmode="layer"
     id="layer1"
     transform="translate(154.08725,-81.309776)">
    <g
       id="g715"
       transform="matrix(0.35277777,0,0,-0.35277777,-106.44567,132.16763)"
       inkscape:export-xdpi="96"
       inkscape:export-ydpi="96">
      <path
         d="M 0,0 C 0.361,0.238 0.777,0.403 1.036,0.704 1.656,1.425 2.092,2.341 2.803,2.941 4.45,4.331 5.198,6.368 6.604,7.925 7.037,8.406 6.448,9.637 7.746,9.57 7.639,10.008 7.342,10.513 7.468,10.868 7.659,11.405 8.505,11.61 8.392,12.385 8.355,12.636 8.318,12.904 8.196,13.116 8.141,13.212 7.834,13.264 7.722,13.199 7.604,13.13 7.54,12.9 7.526,12.734 7.511,12.546 7.675,12.262 7.593,12.171 6.367,10.816 5.84,8.999 4.396,7.734 3.626,7.061 2.949,5.989 2.503,5.062 2.103,4.23 1.886,3.705 0.979,3.246 -0.143,2.678 -0.87,1.563 0,0 m 19.946,15.171 v -1.316 c 0.497,0.192 0.915,0.353 1.929,0.745 -0.992,-1.374 -1.602,-2.216 -2.289,-3.169 -0.219,0.538 -0.344,1.11 -0.471,1.111 -0.374,0 -0.755,-0.209 -1.121,-0.366 C 17.471,11.953 17.933,10.754 16.88,11.038 16.604,10.188 15.68,9.522 16.153,8.46 16.679,8.324 17.205,8.187 17.887,8.01 16.392,6.727 16.393,6.726 15.484,4.418 15.423,4.263 15.341,4.109 15.239,3.977 14.561,3.095 14.558,3.098 15.249,2.345 c 1.798,2.363 1.798,2.363 2.115,4.303 0.307,-0.149 0.388,-0.579 1,-0.196 0.796,0.496 -0.257,1.665 1.019,1.91 1.047,0.201 0.044,1.452 0.542,1.935 0.524,-0.084 0.995,-0.28 1.405,-0.193 0.428,0.092 0.798,0.458 0.932,0.541 -0.065,0.785 -0.116,1.397 -0.176,2.137 h 1.023 c 1.2,1.112 0.662,2.531 1.631,3.464 0.105,0.101 -0.055,0.479 -0.119,0.897 -0.528,-0.211 -0.943,-0.376 -1.356,-0.541 -0.145,0.348 -0.273,0.658 -0.402,0.968 -0.277,-0.133 -0.74,-0.21 -0.801,-0.408 -0.344,-1.138 -1.242,-1.613 -2.116,-1.991 M -94.442,29.047 c -0.266,-0.323 -0.597,-0.613 -0.788,-0.977 -1.131,-2.156 -1.93,-4.469 -3.242,-6.554 -0.607,-0.965 -0.758,-2.215 -1.135,-3.329 -0.35,-1.033 -1.13,-2.119 -0.988,-3.071 0.187,-1.241 -1.804,-1.868 -0.645,-3.146 -1.056,-1.858 -1.313,-3.987 -2.022,-5.963 -0.453,-1.265 -0.923,-2.536 -1.227,-3.84 -0.31,-1.321 -0.84,-2.661 -0.947,-3.922 -0.105,-1.249 -1.118,-2.5 -0.258,-3.907 0.206,-0.338 -0.33,-1.635 -0.72,-1.736 -1.233,-0.318 -0.972,-0.741 -0.361,-1.394 -1.06,-0.894 0.084,-2.368 -0.944,-3.379 -0.465,-0.458 -0.47,-1.421 -0.599,-2.169 -0.127,-0.733 0.232,-0.971 0.933,-0.687 0.123,0.854 0.006,1.863 0.431,2.525 0.546,0.849 -0.268,2.001 0.872,2.678 0.558,0.331 -0.106,1.516 0.848,1.906 0.134,0.055 0.105,0.477 0.177,0.721 0.986,3.321 1.536,6.762 2.742,10.018 0.442,1.194 0.459,2.464 0.997,3.67 0.464,1.041 0.674,2.237 1.146,3.331 0.5,1.158 0.672,2.437 1.019,3.651 1.476,5.171 3.473,10.169 4.711,15.574 m 13.602,-0.783 c -0.926,-0.855 -1.714,-1.23 -1.798,-1.724 -0.323,-1.907 -1.294,-3.453 -2.164,-5.121 -0.84,-1.61 -1.379,-3.412 -2.118,-5.109 -0.735,-1.69 -1.536,-3.47 -1.696,-5.266 -0.25,-2.79 -1.387,-5.251 -2.191,-7.838 -0.75,-2.414 -1.126,-4.935 -2.218,-7.256 -0.39,-0.826 -0.486,-1.825 -0.559,-2.758 -0.109,-1.391 -0.08,-2.75 -0.485,-4.155 -0.399,-1.381 -0.227,-2.916 -0.507,-4.405 -0.236,-1.253 -0.662,-2.525 -0.668,-3.839 -0.006,-1.31 -0.31,-2.599 -0.444,-3.872 -0.282,-2.679 -1.128,-5.225 -1.436,-7.877 -0.038,-0.325 0.27,-0.696 0.219,-1.013 -0.065,-0.398 -0.339,-0.76 -0.516,-1.142 -0.155,-0.335 -0.301,-0.674 -0.462,-1.037 0.287,-0.04 0.461,-0.055 0.63,-0.091 0.079,-0.017 0.219,-0.09 0.214,-0.115 -0.24,-1.275 0.31,-2.451 0.485,-3.693 0.222,1.156 -0.16,2.51 0.318,3.406 0.625,1.175 -0.036,2.463 0.525,3.318 0.76,1.158 0.254,2.266 0.475,3.365 0.148,0.741 0.651,1.601 0.421,2.179 -0.25,0.628 -0.244,0.901 -0.067,1.567 0.304,1.137 0.69,2.368 0.674,3.525 -0.037,2.834 0.377,5.574 1.167,8.262 0.6,2.041 1,4.132 1.451,6.196 0.456,2.086 1.289,4.03 1.794,6.08 0.689,2.794 1.685,5.494 2.402,8.285 0.471,1.828 1.333,3.648 1.864,5.468 0.519,1.785 0.999,3.572 1.693,5.306 0.688,1.715 1.339,3.446 1.919,5.199 0.394,1.187 0.637,2.424 1.078,4.155 m 255.462,5.891 c 1.419,-0.421 2.603,-0.271 3.689,0.366 0.742,0.437 1.36,1.355 2.106,1.443 0.978,0.117 1.255,0.972 1.929,1.211 0.971,0.345 1.059,0.959 1.189,1.814 0.094,0.619 0.67,1.067 1.472,0.442 0.079,0.545 0.152,1.045 0.235,1.613 0.201,-0.158 0.409,-0.243 0.412,-0.335 0.046,-1.441 -0.079,-2.814 -1.657,-3.491 -0.154,-0.066 -0.37,-0.102 -0.445,-0.222 -1.834,-2.939 -2.384,-2.988 -5.718,-5.1 -0.868,-0.549 -1.316,-1.584 -2.48,-1.795 -1.742,-0.318 -3.164,-1.687 -5.055,-1.63 -0.205,0.006 -0.399,-0.347 -0.633,-0.421 -1.287,-0.405 -2.358,-1.52 -3.869,-1.195 -1.052,-0.902 -2.406,-0.818 -3.605,-1.198 -1.69,-0.535 -3.617,-0.269 -5.124,-1.451 -0.228,-0.181 -0.697,-0.033 -1.049,-0.083 -0.935,-0.132 -1.871,0.248 -2.827,-0.46 -0.695,-0.515 -1.832,0.211 -2.77,-0.566 -0.585,-0.484 -1.638,-0.107 -2.541,-0.355 -1.631,-0.447 -3.319,-0.694 -4.919,-1.325 -0.907,-0.358 -0.816,0.623 -1.23,1.118 -0.343,-0.493 -0.67,-0.959 -1.184,-1.695 -0.312,0 -0.975,0.149 -1.516,-0.046 -0.464,-0.167 -0.758,-0.763 -1.179,-1.102 -0.605,-0.485 -1.236,-0.945 -1.904,-1.333 -0.166,-0.096 -0.517,0.13 -0.561,0.142 -0.819,-0.902 -1.625,-1.791 -2.491,-2.744 -0.322,0.267 -0.553,0.385 -0.669,0.574 -0.126,0.205 -0.144,0.476 -0.263,0.92 -0.36,-0.271 -0.616,-0.437 -0.837,-0.641 -0.216,-0.2 -0.394,-0.441 -0.587,-0.663 -0.233,0.306 -0.466,0.612 -0.769,1.009 -0.57,-0.632 -1.956,-0.449 -1.921,-1.951 0.494,0.144 0.96,0.432 1.352,0.354 0.465,-0.092 0.868,-0.5 1.507,-0.901 -0.416,-0.33 -0.78,-0.786 -1.25,-0.959 -1.357,-0.5 -2.395,-1.374 -3.301,-2.459 -0.719,-0.863 -1.572,-1.556 -2.503,-1.836 0.05,-0.338 0.089,-0.603 0.128,-0.869 -1.062,-0.033 -1.446,-0.885 -1.93,-1.609 -0.14,-0.209 -0.176,-0.534 -0.36,-0.658 -1.362,-0.918 -2.281,-2.213 -3.023,-3.622 -0.468,-0.888 -1.032,-1.484 -2.255,-1.325 0.243,-0.24 0.313,-0.298 0.371,-0.368 0.548,-0.666 -0.547,-1.16 -0.191,-1.808 -1.177,-1.384 -1.416,-3.437 -3.077,-4.303 0.156,-0.899 0.293,-1.697 0.502,-2.911 -0.513,0.372 -0.678,0.49 -0.936,0.677 0.016,-0.675 -1.231,-0.908 -0.367,-1.936 0.349,-0.416 0.312,-1.619 -0.045,-2.063 -0.625,-0.777 -0.412,-1.536 -0.424,-2.297 -0.042,-2.817 -0.317,-5.675 0.053,-8.444 0.561,-4.205 0.354,-8.4 0.518,-12.598 0.042,-1.094 0.756,-2.153 0.491,-3.319 -0.11,-0.486 -0.494,-0.942 -0.494,-1.413 0,-0.469 0.372,-0.927 0.496,-1.412 0.253,-0.995 -0.52,-1.883 -0.476,-2.768 0.089,-1.802 -0.465,-3.484 -0.603,-5.232 -0.014,-0.18 0.074,-0.424 -0.013,-0.536 -1.37,-1.741 -1.333,-3.985 -2.1,-5.95 -1.351,-3.456 -2.775,-6.886 -4.584,-10.092 -1.937,-3.431 -3.793,-7.039 -7.409,-9.186 -0.454,-0.27 -0.596,-1.04 -1.039,-1.365 -0.453,-0.33 -1.209,-0.259 -1.637,-0.606 -0.913,-0.741 -1.7,-1.638 -2.734,-2.666 -1.21,0.359 -2.525,-0.233 -3.536,-1.16 -1.372,-1.258 -3.379,-1.24 -4.657,-2.667 -1.019,-1.139 -2.416,-1.824 -3.846,-2.412 -1.475,-0.607 -2.886,-1.371 -4.37,-1.955 -1.014,-0.4 -1.845,-1.215 -3.084,-1.206 -0.285,0.002 -0.362,-1.25 -1.421,-1.045 -0.506,0.098 -1.226,-0.178 -1.649,-0.527 -0.793,-0.654 -1.662,-0.454 -2.525,-0.521 -1.298,-0.1 -2.65,0.332 -3.886,-0.509 -0.312,-0.211 -0.938,-0.156 -1.33,-10e-4 -0.527,0.209 -0.874,0.931 -1.587,0.193 -0.155,-0.159 -0.842,0.272 -1.294,0.311 -2.572,0.218 -4.859,1.06 -6.69,2.948 -0.5,0.516 -0.981,0.869 -1.811,0.943 -0.971,0.086 -2.071,0.43 -2.799,1.039 -0.804,0.674 -1.841,0.42 -2.592,1.062 -0.366,0.313 -1.077,0.291 -1.342,0.64 -1.284,1.68 -3.366,2.058 -4.968,3.197 -0.953,-0.312 -0.71,1.239 -1.05,0.943 -0.743,-0.648 -0.922,0.028 -1.189,0.322 -0.393,0.431 -0.669,0.969 -1.056,1.554 -0.436,-0.217 -0.886,-0.44 -1.722,-0.856 -0.363,0.485 -0.676,1.3 -1.25,1.577 -0.896,0.434 -1.218,1.945 -2.675,1.428 -0.213,-0.076 -0.717,0.614 -1.06,0.976 -0.159,0.168 -0.329,0.589 -0.364,0.575 -1.454,-0.588 -2.119,1.169 -3.378,1.125 -0.161,-0.006 -0.401,0.029 -0.478,0.136 -0.932,1.291 -2.427,1.54 -3.747,2.158 -1.087,0.509 -1.985,1.42 -2.887,2.092 0.219,0.574 0.379,0.993 0.58,1.521 -0.676,-0.677 -1.219,-1.22 -1.615,-1.615 -1.9,0.84 -3.705,1.145 -4.786,2.993 -0.142,-0.501 -0.225,-0.795 -0.363,-1.281 -0.47,0.384 -0.849,0.917 -1.331,1.037 -0.741,0.185 -1.588,-0.118 -2.248,0.558 -0.067,0.068 -0.552,-0.333 -0.868,-0.428 -0.222,-0.066 -0.704,0.026 -0.704,0.034 0.05,1.323 -1.153,0.74 -1.689,1.139 -0.347,0.258 -0.595,0.65 -0.955,1.058 -0.116,-0.945 -0.616,-1.336 -1.337,-1.476 -0.486,-0.094 -1.163,-0.371 -1.441,-0.158 -0.804,0.614 -1.321,0.454 -2.127,-0.045 -0.523,-0.323 -1.408,-0.061 -2.242,-0.061 -0.456,0.135 -0.021,1.519 -1.007,1.022 -0.749,-0.377 -0.146,-0.988 0.291,-1.353 -1.398,-0.944 -0.851,1.444 -2.115,0.911 -0.548,-0.232 -1.407,0.27 -2.116,0.436 -0.586,-1.164 0.822,-1.279 0.921,-2.033 0,-0.604 -0.59,-1.164 -1.066,-0.905 -0.437,0.236 -0.832,0.454 -1.03,-0.067 -0.051,-0.137 0.625,-0.603 0.01,-0.928 -0.366,-0.194 -0.797,-0.27 -1.201,-0.387 -1.64,-0.476 -3.053,-1.331 -4.041,-2.724 -0.733,-1.033 -1.302,-2.182 -1.945,-3.279 -0.643,-1.098 -1.206,-2.253 -1.959,-3.269 -0.443,-0.597 -1.186,-0.971 -1.782,-1.437 0.641,-0.583 0.599,-1.165 0.077,-2.011 -1.061,-1.719 -1.735,-3.706 -2.947,-5.295 -0.893,-1.172 -1.602,-2.379 -2.292,-3.658 -0.688,-1.278 -1.635,-2.418 -2.479,-3.611 -0.092,-0.131 -0.25,-0.216 -0.378,-0.322 -0.28,1.059 -0.561,2.121 -0.842,3.183 -0.103,0.002 -0.207,0.003 -0.31,0.004 -0.06,-0.355 -0.181,-0.715 -0.162,-1.066 0.021,-0.35 0.182,-0.691 0.282,-1.037 -0.981,0.102 -0.982,-1.724 -2.348,-1.013 v -3.076 c 0.893,1.14 1.6,2.045 2.312,2.955 1.002,-1.023 -0.402,-1.688 -0.388,-2.562 -1.998,-1.33 -2.287,-3.861 -3.929,-5.589 h -2.398 v -1.609 c -0.567,0.228 -0.971,0.391 -1.576,0.635 -0.085,-0.587 -0.158,-1.075 -0.246,-1.677 -0.673,-0.201 -1.435,-0.338 -2.108,-0.662 -0.449,-0.217 -0.714,-0.848 -1.166,-1.022 -0.476,-0.183 -1.075,-0.039 -1.621,-0.044 -0.083,-0.001 -0.197,-0.005 -0.245,-0.057 -1.328,-1.437 -3.174,-1.914 -5.014,-2.512 -0.064,0.065 -0.227,0.316 -0.458,0.437 -0.347,0.183 -0.741,0.274 -1.116,0.405 0.043,-0.445 0.085,-0.89 0.131,-1.364 -2.82,-0.708 -2.82,-0.708 -3.894,-0.209 -0.39,-0.885 -0.74,-1.538 -2.003,-1.676 -2.58,-0.283 -5.114,-1.032 -7.736,-0.988 -0.58,0.009 -1.124,-0.946 -1.715,-0.07 -0.516,-1.007 -1.005,0.331 -1.465,0.026 -0.603,-0.402 -1.154,-0.958 -1.747,-0.013 -0.752,-0.336 -1.503,-0.671 -2.264,-1.011 -0.502,0.438 -0.802,1.292 -1.813,0.537 -0.433,-0.323 -1.262,-0.132 -1.205,0.833 0,0.005 -0.322,0.079 -0.358,0.028 -0.554,-0.806 -1.196,0.884 -1.704,-0.063 -0.114,-0.212 -0.096,-0.494 -0.114,-0.598 -0.513,0.513 -1.057,1.057 -1.849,1.85 -0.177,-0.944 -0.269,-1.434 -0.423,-2.257 -0.392,0.51 -0.811,0.828 -0.896,1.219 -0.142,0.651 -0.537,0.742 -0.919,0.466 -0.498,-0.36 -0.183,-0.777 0.184,-1.101 0.054,-0.047 0.079,-0.126 0.15,-0.245 -1.069,-0.589 -1.293,0.617 -1.818,0.834 -1.991,-0.954 -3.939,-0.801 -5.849,-0.132 -1.432,0.502 -3.148,0.556 -3.964,2.241 -0.091,0.19 -0.772,-0.65 -1.117,0.086 -0.196,-0.33 -0.392,-0.66 -0.653,-1.097 -0.382,0.594 -0.74,1.151 -1.148,1.783 -0.444,-0.203 -0.891,-0.523 -1.364,-0.565 -0.179,-0.016 -0.539,0.922 -0.607,0.896 -1.417,-0.56 -2.12,0.471 -2.865,1.281 -0.792,0.864 -1.797,1.306 -2.838,1.723 -0.182,1.798 -1.65,1.485 -3.366,1.514 1.036,0.664 1.582,1.013 2.128,1.363 -0.244,0.241 -0.503,0.495 -0.849,0.835 -0.238,-0.361 -0.479,-0.729 -0.672,-1.022 -0.333,0.062 -0.495,0.043 -0.58,0.115 -1.283,1.084 -2.495,2.262 -3.857,3.233 -0.583,0.416 -0.175,1.435 -1.237,1.545 -0.328,0.035 -0.85,1.14 -0.756,1.66 0.154,0.863 -0.039,1.136 -0.769,1.582 -0.752,0.459 -1.235,1.357 -1.838,2.061 -1.861,2.173 -4.382,3.741 -5.793,6.326 -2.185,1.012 -2.816,3.395 -4.37,4.974 -1.2,1.217 -1.331,3.167 -2.704,4.335 -0.133,0.115 -0.055,0.531 -0.01,0.796 0.168,0.989 -0.242,1.663 -0.952,2.349 -1.328,1.281 -1.766,3.086 -2.284,4.764 -0.472,1.532 -1.547,2.939 -1.207,4.685 -1.058,1.301 -1.031,3.055 -1.802,4.425 -0.443,0.785 0.163,1.095 0.125,1.541 -0.062,0.708 -0.62,1.359 -0.884,2.066 -0.328,0.878 -0.809,1.693 -0.681,2.74 0.09,0.732 0.382,1.633 -0.462,2.264 -0.073,0.055 0.256,0.578 0.313,0.9 0.053,0.299 0.11,0.803 -0.038,0.898 -0.854,0.542 -0.431,1.171 -0.376,1.898 0.067,0.906 -0.386,1.837 -0.465,2.771 -0.092,1.083 0.058,2.187 -0.042,3.269 -0.12,1.294 0.508,2.697 -0.513,3.871 1.309,0.97 0.23,2.275 0.325,3.382 0.079,0.918 0.43,1.856 0.27,2.856 -0.092,0.579 0.656,1.154 0.511,1.951 -0.128,0.703 0.039,1.457 -0.047,2.174 -0.071,0.588 0.84,1.137 0.054,1.774 -0.051,0.042 0.314,0.786 0.621,1.036 0.454,0.368 1.03,0.586 1.618,0.903 -0.679,0.441 -1.234,0.8 -1.645,1.067 0.173,1.105 0.404,2.028 0.444,2.96 0.069,1.633 -0.259,3.333 0.084,4.893 0.508,2.298 0.164,4.631 0.564,6.864 0.381,2.122 0.395,4.301 1.008,6.38 0.048,0.162 0.068,0.35 0.167,0.474 0.377,0.472 1.158,0.733 0.436,1.623 -0.202,0.249 0.503,1.096 0.444,1.63 -0.105,0.948 0.393,1.675 0.586,2.507 0.363,1.577 0.992,3.054 1.195,4.717 0.19,1.565 0.883,3.086 1.039,4.736 0.108,1.146 0.707,2.241 1.035,3.373 0.588,2.035 0.867,4.154 1.646,6.137 1.594,4.065 2.791,8.27 4.772,12.211 0.93,1.85 1.901,3.746 2.597,5.734 0.451,1.29 1.312,2.398 2.008,3.514 2.333,3.748 3.582,8.092 6.438,11.53 1.606,4.318 5.203,7.391 7.17,11.484 1.575,0.612 1.85,2.314 2.85,3.413 1.006,1.107 2.045,2.21 2.879,3.444 1.833,2.71 4.433,4.685 6.554,7.108 0.832,0.95 1.508,1.996 2.987,2.161 -0.265,0.311 -0.425,0.498 -0.611,0.716 3.773,3.771 7.437,7.685 11.388,11.284 2.046,1.864 3.996,3.845 6.117,5.612 3.333,2.775 6.772,5.424 10.313,7.954 6.247,4.463 13.007,8.002 19.881,11.294 4.989,2.389 10.2,4.326 15.434,6.191 4.916,1.75 9.864,3.397 14.813,5.04 1.767,0.586 3.6,0.977 5.411,1.425 1.57,0.389 3.163,0.69 4.724,1.109 1.479,0.397 3.009,0.466 4.487,1.007 1.085,0.397 2.372,0.086 3.587,0.557 1.182,0.458 2.609,0.256 3.827,0.654 1.121,0.368 2.419,0.186 3.381,1.042 2.019,-0.057 3.885,0.765 5.829,1.028 1.973,0.267 3.863,0.887 5.784,1.286 1.766,0.368 3.752,0.385 5.349,1.504 2.561,-0.15 4.93,0.916 7.448,1.173 2.668,0.274 5.275,1.142 8.01,1.009 1.658,0.998 3.53,0.185 5.219,0.585 3.733,0.885 7.492,0.398 11.237,0.487 3.725,0.088 7.455,-0.038 11.179,0.048 1.435,0.033 2.768,-0.307 4.142,-0.557 1.366,-0.248 2.86,0.417 4.134,-0.563 1.628,0.4 3.086,-0.572 4.682,-0.578 1.016,-0.005 2.154,-0.1 3.021,-0.561 1.785,-0.949 3.778,-0.947 5.634,-1.542 1.846,-0.591 3.603,-1.52 5.58,-1.682 0.205,-0.701 1.495,-0.216 1.407,-1.285 -0.008,-0.101 0.395,-0.348 0.594,-0.334 2.544,0.17 4.529,-1.317 6.758,-2.132 2.846,-1.04 5.665,-2.197 8.389,-3.445 3.281,-1.504 6.879,-2.273 9.903,-4.458 1.732,-1.251 3.942,-1.831 5.912,-2.762 1.708,-0.806 3.171,-2.055 4.798,-2.934 1.03,-0.557 1.513,-2.201 3.084,-1.741 0.897,-0.689 1.77,-1.41 2.696,-2.056 0.978,-0.683 1.978,-1.344 3.017,-1.929 3.77,-2.123 7.025,-4.883 10.096,-7.901 1.13,-1.111 2.572,-1.93 3.587,-3.124 3.233,-3.806 6.706,-7.425 9.467,-11.613 0.789,-1.198 1.48,-2.469 2.12,-3.756 0.938,-1.887 2.243,-3.544 2.959,-5.593 1.174,-3.363 2.454,-6.653 3.015,-10.217 0.364,-2.303 0.726,-4.62 1.15,-6.898 0.484,-2.599 0.363,-5.142 0.389,-7.705 0.02,-1.862 0.388,-3.598 0.955,-5.343 0.213,-0.654 0.104,-1.408 0.18,-2.112 0.057,-0.527 0.193,-1.045 0.263,-1.571 0.168,-1.283 0.655,-2.558 -0.221,-3.832 -0.161,-0.234 0.568,-0.988 0.448,-1.361 -0.334,-1.035 -0.293,-2.337 -1.665,-2.822 -0.549,-0.193 -1.065,-0.563 -1.508,-0.954 -1.528,-1.35 -3.02,-2.742 -4.519,-4.126 -0.169,-0.155 -0.438,-0.372 -0.419,-0.533 0.142,-1.227 -0.797,-1.539 -1.796,-1.982"
         style="fill:#000000;fill-opacity:1;fill-rule:nonzero;stroke:none"
         id="path717"
         inkscape:connector-curvature="0" />
    </g>
  </g>
</svg>
