<?xml version="1.0" encoding="UTF-8" standalone="no"?>
<!-- Created with Inkscape (http://www.inkscape.org/) -->

<svg
   xmlns:dc="http://purl.org/dc/elements/1.1/"
   xmlns:cc="http://creativecommons.org/ns#"
   xmlns:rdf="http://www.w3.org/1999/02/22-rdf-syntax-ns#"
   xmlns:svg="http://www.w3.org/2000/svg"
   xmlns="http://www.w3.org/2000/svg"
   xmlns:sodipodi="http://sodipodi.sourceforge.net/DTD/sodipodi-0.dtd"
   xmlns:inkscape="http://www.inkscape.org/namespaces/inkscape"
   width="39.285755mm"
   height="32.316654mm"
   viewBox="0 0 39.285755 32.316654"
   version="1.1"
   id="svg4702"
   inkscape:version="0.92.5 (2060ec1f9f, 2020-04-08)"
   sodipodi:docname="scribbbles-08.svg">
  <defs
     id="defs4696" />
  <sodipodi:namedview
     id="base"
     pagecolor="#ffffff"
     bordercolor="#666666"
     borderopacity="1.0"
     inkscape:pageopacity="0.0"
     inkscape:pageshadow="2"
     inkscape:zoom="0.35"
     inkscape:cx="648.52651"
     inkscape:cy="-498.92916"
     inkscape:document-units="mm"
     inkscape:current-layer="layer1"
     showgrid="false"
     fit-margin-top="0"
     fit-margin-left="0"
     fit-margin-right="0"
     fit-margin-bottom="0"
     inkscape:window-width="1366"
     inkscape:window-height="715"
     inkscape:window-x="0"
     inkscape:window-y="0"
     inkscape:window-maximized="1" />
  <metadata
     id="metadata4699">
    <rdf:RDF>
      <cc:Work
         rdf:about="">
        <dc:format>image/svg+xml</dc:format>
        <dc:type
           rdf:resource="http://purl.org/dc/dcmitype/StillImage" />
        <dc:title></dc:title>
      </cc:Work>
    </rdf:RDF>
  </metadata>
  <g
     inkscape:label="Calque 1"
     inkscape:groupmode="layer"
     id="layer1"
     transform="translate(65.755973,15.49166)">
    <g
       id="g327"
       transform="matrix(0.35277777,0,0,-0.35277777,-55.442377,2.270103)"
       inkscape:export-xdpi="96"
       inkscape:export-ydpi="96">
      <path
         d="m 0,0 c 1.817,7.776 3.579,15.355 5.363,22.93 0.666,2.826 1.206,5.699 2.125,8.444 1.187,3.546 3.811,4.238 6.842,3.484 8.17,-2.034 11.603,-8.277 14.606,-15.125 0.76,-1.734 1.703,-3.39 2.599,-5.064 1.267,-2.368 1.522,-2.377 3.211,-0.137 2.959,3.925 4.218,8.611 5.812,13.139 2.196,6.243 3.863,12.671 6.462,18.772 1.063,2.495 3.891,4.409 5.695,3.787 1.864,-0.641 3.67,-1.51 5.407,-2.454 4.774,-2.596 7.523,-7.007 9.981,-11.598 4.49,-8.386 9.271,-16.626 12.936,-25.432 C 81.524,9.58 82.377,8.418 82.055,7.151 81.74,5.907 81.452,3.758 79.354,5.846 79.023,6.175 78.68,6.432 78.163,6.273 c -3.475,-1.071 -4.788,1.472 -6.225,3.762 -4.199,6.69 -8.374,13.397 -12.582,20.082 -0.408,0.648 -0.665,1.769 -1.651,1.52 -0.706,-0.178 -0.584,-1.24 -0.864,-1.893 C 54.806,25.001 54.352,19.809 52.631,14.977 51.685,12.32 50.673,9.699 49.123,7.32 48.127,5.794 47.173,4.277 45.139,3.914 44.562,3.811 43.875,3.394 43.56,2.911 41.677,0.025 38.982,1.094 36.457,1.35 29.503,2.056 24.237,5.502 20.398,11.266 20.264,11.467 19.965,11.56 19.542,11.833 18.977,10.03 18.116,8.568 17.806,6.627 16.699,-0.327 15.74,-7.333 13.25,-14.014 c -0.983,-2.636 -2.865,-4.216 -5.184,-5.105 -1.997,-0.765 -4.019,0.941 -6.254,0.744 -4.341,-0.384 -6.894,2.595 -9.184,5.716 -1.067,1.455 -1.962,3.037 -2.946,4.579 -2.716,-2.646 -2.531,-6.317 -3.365,-9.481 -1.244,-4.717 -2.942,-9.223 -4.706,-13.729 -1.131,-2.891 -1.607,-5.999 -3.599,-8.614 -1.647,-2.161 -3.751,-1.116 -5.426,-1 -1.157,0.079 -2.322,1.812 -1.597,3.889 5.064,14.501 7.307,29.56 8.612,44.795 0.253,2.954 2.037,5.376 3.92,5.102 1.823,-0.264 3.627,-0.872 5.355,-1.545 4.3,-1.674 6.936,-5.119 9.188,-8.941 C -1.488,1.637 -1.331,0.659 0,0"
         style="fill:#000000;fill-opacity:1;fill-rule:nonzero;stroke:none"
         id="path329"
         inkscape:connector-curvature="0" />
    </g>
  </g>
</svg>
